{
  "kind": "singleType",
  "collectionName": "globals",
  "info": {
    "singularName": "global",
    "pluralName": "globals",
    "displayName": "Global",
    "description": "Define global settings"
  },
  "options": {
    "draftAndPublish": false
  },
  "pluginOptions": {
    "i18n": {
      "localized": true
    }
  },
  "attributes": {
    "siteName": {
      "type": "string",
      "required": true,
      "pluginOptions": {
        "i18n": {
          "localized": true
        }
      }
    },
    "favicon": {
      "type": "media",
      "multiple": false,
      "required": false,
      "allowedTypes": [
        "images",
        "files",
        "videos"
      ],
      "pluginOptions": {
        "i18n": {
          "localized": false
        }
      }
    },
    "siteDescription": {
      "type": "text",
      "required": true,
      "pluginOptions": {
        "i18n": {
          "localized": true
        }
      }
    },
    "defaultSeo": {
      "type": "component",
      "repeatable": false,
      "component": "shared.seo",
      "pluginOptions": {
        "i18n": {
          "localized": true
        }
      }
    },
    "logo": {
      "type": "media",
      "multiple": false,
      "required": false,
      "allowedTypes": [
        "images"
      ],
      "pluginOptions": {
        "i18n": {
          "localized": false
        }
      }
    },
    "contactEmail": {
      "type": "email",
      "pluginOptions": {
        "i18n": {
          "localized": false
        }
      }
    }
  }
}
